#
## Alias OBJ Material File
# Exported from SketchUp, (c) 2000-2012 Trimble Navigation Limited

newmtl Hex_gono_Regular
Ka 0.000000 0.000000 0.000000
Kd 1.000000 1.000000 0.000000
Ks 0.330000 0.330000 0.330000
d 0.500000

newmtl Tri_ngulo_Regular
Ka 0.000000 0.000000 0.000000
Kd 1.000000 0.000000 0.000000
Ks 0.330000 0.330000 0.330000
d 0.490000

